『問題解決力を鍛える！ アルゴリズムとデータ構造』
…
    dplyr::filter(depth > 0) |> # 根を除去
    dplyr::mutate(
      edge_id   = index, 
      node_type = "parent", # (確認用)
      depth   = depth - 1, # 縦方向のノード位置
      index   = index %/% 2, 
      col_idx = index - 2^depth + 1, # 深さごとのノード番号
      coord_x = (col_idx * 2 - 1) * 1/(2^depth * 2) # 横方向のノード位置
    )
) |> 
  dplyr::select(!label_offset) |> 
  dplyr::arrange(edge_id, depth)
edge_df

## # A tibble: 38 × 7
##    value index depth col_idx coord_x edge_id node_type
##    <int> <dbl> <dbl>   <dbl>   <dbl>   <int> <chr>    
##  1    19     1     0       1   0.5         2 parent   
##  2    19     2     1       1   0.25        2 childe   
##  3    15     1     0       1   0.5         3 parent   
##  4    15     3     1       2   0.75        3 childe   
##  5    18     2     1       1   0.25        4 parent   
##  6    18     4     2       1   0.125       4 childe   
##  7    11     2     1       1   0.25        5 parent   
##  8    11     5     2       2   0.375       5 childe   
##  9    13     3     1       2   0.75        6 parent   
## 10    13     6     2       3   0.625       6 childe   
## # ℹ 28 more rows
…
# 数列を格納
trace_df <- tibble::tibble(
  step  = 0,   # 試行回数
  id    = 1:N, # 元のインデックス
  index = 1:N, # 各試行のインデックス
  value = a    # 要素
) |> 
  dplyr::mutate(
    target_flag = FALSE, # 入替対象の頂点
    heap_flag   = index > max_i # ヒープ化済みの部分木頂点
  )
trace_df

## # A tibble: 25 × 6
##     step    id index value target_flag heap_flag
##    <dbl> <int> <int> <int> <lgl>       <lgl>    
##  1     0     1     1    15 FALSE       FALSE    
##  2     0     2     2     2 FALSE       FALSE    
##  3     0     3     3    12 FALSE       FALSE    
##  4     0     4     4    25 FALSE       FALSE    
##  5     0     5     5    14 FALSE       FALSE    
##  6     0     6     6    10 FALSE       FALSE    
##  7     0     7     7     6 FALSE       FALSE    
##  8     0     8     8    16 FALSE       FALSE    
##  9     0     9     9     7 FALSE       FALSE    
## 10     0    10    10     3 FALSE       FALSE    
## # ℹ 15 more rows
…
　各試行の二分木のグラフを切り替えて推移を確認します。

　試行ごとの頂点の描画用のデータフレームを作成します。

# 頂点の座標を作成
trace_vertex_df <- trace_df |> 
  dplyr::mutate(
    depth   = floor(log2(index)), # 縦方向の頂点位置
    col_idx = index - 2^depth + 1, # 深さごとの頂点番号
    coord_x = (col_idx * 2 - 1) * 1/(2^depth * 2), # 横方向の頂点位置
  )
trace_vertex_df

## # A tibble: 550 × 9
##     step    id index value target_flag heap_flag depth col_idx coord_x
##    <dbl> <int> <int> <int> <lgl>       <lgl>     <dbl>   <dbl>   <dbl>
##  1     0     1     1    15 FALSE       FALSE         0       1  0.5   
##  2     0     2     2     2 FALSE       FALSE         1       1  0.25  
##  3     0     3     3    12 FALSE       FALSE         1       2  0.75  
##  4     0     4     4    25 FALSE       FALSE         2       1  0.125 
##  5     0     5     5    14 FALSE       FALSE         2       2  0.375 
##  6     0     6     6    10 FALSE       FALSE         2       3  0.625 
##  7     0     7     7     6 FALSE       FALSE         2       4  0.875 
##  8     0     8     8    16 FALSE       FALSE         3       1  0.0625
##  9     0     9     9     7 FALSE       FALSE         3       2  0.188 
## 10     0    10    10     3 FALSE       FALSE         3       3  0.312 
## # ℹ 540 more rows
…
  trace_vertex_df |> 
    dplyr::filter(step == 0, depth > 0) |> # 1試行分のデータを抽出・根を除去
    dplyr::mutate(
      edge_id = index, # 子インデックス
      depth   = depth - 1, # 縦方向の頂点位置
      index   = index %/% 2, # 親インデックス
      col_idx = index - 2^depth + 1, # 深さごとの頂点番号
      coord_x = (col_idx * 2 - 1) * 1/(2^depth * 2) # 横方向の頂点位置
    )
) |> 
  dplyr::select(!step) |> # フレーム遷移の影響から外す
  dplyr::arrange(edge_id, depth)
edge_df

## # A tibble: 48 × 9
##       id index value target_flag heap_flag depth col_idx coord_x edge_id
##    <int> <dbl> <int> <lgl>       <lgl>     <dbl>   <dbl>   <dbl>   <int>
##  1     2     1     2 FALSE       FALSE         0       1   0.5         2
##  2     2     2     2 FALSE       FALSE         1       1   0.25        2
##  3     3     1    12 FALSE       FALSE         0       1   0.5         3
##  4     3     3    12 FALSE       FALSE         1       2   0.75        3
##  5     4     2    25 FALSE       FALSE         1       1   0.25        4
##  6     4     4    25 FALSE       FALSE         2       1   0.125       4
##  7     5     2    14 FALSE       FALSE         1       1   0.25        5
##  8     5     5    14 FALSE       FALSE         2       2   0.375       5
##  9     6     3    10 FALSE       FALSE         1       2   0.75        6
## 10     6     6    10 FALSE       FALSE         2       3   0.625       6
## # ℹ 38 more rows
…
　インデックスラベルの描画用のデータフレームを作成します。

# インデックスラベルの座標を作成
d <- 0.6
index_df <- trace_vertex_df |> 
  dplyr::filter(step == 0) |> # 1試行分のデータを抽出
  dplyr::mutate(
    offset = dplyr::if_else(
      condition = index%%2 == 0, true = 0.5+d, false = 0.5-d
    ) # ラベル位置を左右にズラす
  ) |> 
  dplyr::select(!step) # フレーム遷移の影響から外す
index_df

## # A tibble: 25 × 9
##       id index value target_flag heap_flag depth col_idx coord_x offset
##    <int> <int> <int> <lgl>       <lgl>     <dbl>   <dbl>   <dbl>  <dbl>
##  1     1     1    15 FALSE       FALSE         0       1  0.5      -0.1
##  2     2     2     2 FALSE       FALSE         1       1  0.25      1.1
##  3     3     3    12 FALSE       FALSE         1       2  0.75     -0.1
##  4     4     4    25 FALSE       FALSE         2       1  0.125     1.1
##  5     5     5    14 FALSE       FALSE         2       2  0.375    -0.1
##  6     6     6    10 FALSE       FALSE         2       3  0.625     1.1
##  7     7     7     6 FALSE       FALSE         2       4  0.875    -0.1
##  8     8     8    16 FALSE       FALSE         3       1  0.0625    1.1
##  9     9     9     7 FALSE       FALSE         3       2  0.188    -0.1
## 10    10    10     3 FALSE       FALSE         3       3  0.312     1.1
## # ℹ 15 more rows
…
　ヒープ化済みの頂点の描画用のデータフレームを作成します。

# ヒープ化済み頂点の座標を作成
heap_df <- trace_vertex_df |> 
  dplyr::filter(heap_flag, step > 0) |> # ヒープ化済み頂点を抽出・初期値を除去:(表示フレームの調整用)
  dplyr::mutate(
    step = step - 1 # 表示フレームを調整
  ) |> 
  dplyr::bind_rows(
    trace_vertex_df |> 
      dplyr::filter(step == max(step))
  ) # 最終値を追加:(表示フレームの調整用)
heap_df

## # A tibble: 406 × 9
##     step    id index value target_flag heap_flag depth col_idx coord_x
##    <dbl> <int> <int> <int> <lgl>       <lgl>     <dbl>   <dbl>   <dbl>
##  1     0    13    13    17 FALSE       TRUE          3       6  0.688 
##  2     0    14    14    21 FALSE       TRUE          3       7  0.812 
##  3     0    15    15     1 FALSE       TRUE          3       8  0.938 
##  4     0    16    16    13 FALSE       TRUE          4       1  0.0312
##  5     0    17    17     8 FALSE       TRUE          4       2  0.0938
##  6     0    18    18    22 FALSE       TRUE          4       3  0.156 
##  7     0    19    19    19 FALSE       TRUE          4       4  0.219 
##  8     0    20    20     4 FALSE       TRUE          4       5  0.281 
##  9     0    21    21    20 FALSE       TRUE          4       6  0.344 
## 10     0    22    22    11 FALSE       TRUE          4       7  0.406 
## # ℹ 396 more rows
…
　1試行早く表示するために、step
列を-1し、最終値(全ての要素がヒープ化済み)のデータを複製します。

　入れ替え対象の頂点の描画用のデータフレームを作成します。

# 入替対象の頂点の座標を作成
target_vertex_df <- trace_vertex_df |> 
  dplyr::filter(target_flag) |> # 入替対象の親を抽出
  dplyr::mutate(
    step = step - 1 # 表示フレームを調整
  ) |> 
  dplyr::arrange(step, index)
target_vertex_df

## # A tibble: 63 × 9
##     step    id index value target_flag heap_flag depth col_idx coord_x
##    <dbl> <int> <int> <int> <lgl>       <lgl>     <dbl>   <dbl>   <dbl>
##  1     0    12    12    23 TRUE        FALSE         3       5   0.562
##  2     0    24    24     9 TRUE        FALSE         4       9   0.531
##  3     0    25    25    18 TRUE        FALSE         4      10   0.594
##  4     1    11    11    24 TRUE        FALSE         3       4   0.438
##  5     1    22    22    11 TRUE        FALSE         4       7   0.406
##  6     1    23    23     5 TRUE        FALSE         4       8   0.469
##  7     2    21    10    20 TRUE        FALSE         3       3   0.312
##  8     2    20    20     4 TRUE        FALSE         4       5   0.281
##  9     2    10    21     3 TRUE        FALSE         4       6   0.344
## 10     3    18     9    22 TRUE        FALSE         3       2   0.188
## # ℹ 53 more rows
…
    dplyr::filter(edge_id <= N), # 子がなければ除去
  # 子の座標
  target_vertex_df |> 
    dplyr::group_by(step) |> 
    dplyr::filter(index != min(index)) |> # 子を抽出
    dplyr::ungroup() |> 
    dplyr::mutate(
      edge_id = index
    )
) |> 
  dplyr::arrange(step, index)
target_edge_df |> 
  dplyr::select(!col_idx) # (資料作成用に間引き)

## # A tibble: 84 × 10
##     step    id index value target_flag heap_flag depth coord_x childe_id edge_id
##    <dbl> <int> <int> <int> <lgl>       <lgl>     <dbl>   <dbl>     <dbl>   <dbl>
##  1     0    12    12    23 TRUE        FALSE         3   0.562         0      24
##  2     0    12    12    23 TRUE        FALSE         3   0.562         1      25
##  3     0    24    24     9 TRUE        FALSE         4   0.531        NA      24
##  4     0    25    25    18 TRUE        FALSE         4   0.594        NA      25
##  5     1    11    11    24 TRUE        FALSE         3   0.438         0      22
##  6     1    11    11    24 TRUE        FALSE         3   0.438         1      23
##  7     1    22    22    11 TRUE        FALSE         4   0.406        NA      22
##  8     1    23    23     5 TRUE        FALSE         4   0.469        NA      23
##  9     2    21    10    20 TRUE        FALSE         3   0.312         0      20
## 10     2    21    10    20 TRUE        FALSE         3   0.312         1      21
## # ℹ 74 more rows
…
    value = initial_a, 
    target_flag = FALSE
  ), 
  # 挿入後
  tibble::tibble(
    step  = 1, 
    id    = 1:N, 
    index = id, 
    value = a, 
    target_flag = index == N # 挿入対象
  )
)
trace_df

## # A tibble: 81 × 5
##     step    id index value target_flag
##    <dbl> <int> <int> <dbl> <lgl>      
##  1     0     1     1    40 FALSE      
##  2     0     2     2    39 FALSE      
##  3     0     3     3    35 FALSE      
##  4     0     4     4    38 FALSE      
##  5     0     5     5    33 FALSE      
##  6     0     6     6    32 FALSE      
##  7     0     7     7    34 FALSE      
##  8     0     8     8    37 FALSE      
##  9     0     9     9    31 FALSE      
## 10     0    10    10    24 FALSE      
## # ℹ 71 more rows
…
# 1番目の要素を挿入
a <- initial_a[1]

# 数列を格納
trace_df <- tibble::tibble(
  step  = 0, # 試行番号
  id    = 1:N, # 元のインデックス
  index = c(1, rep(NA, times = N-1)), # 試行ごとのインデックス:(未挿入はNAとする)
  value = initial_a, # 要素:(未挿入要素も含める)
  target_flag = FALSE, # 挿入・入替対象:(初手FALSEの方が処理が楽)
  insert_flag = !is.na(index) # 挿入済み要素
)
trace_df

## # A tibble: 25 × 6
##     step    id index value target_flag insert_flag
##    <dbl> <int> <dbl> <int> <lgl>       <lgl>      
##  1     0     1     1    15 FALSE       TRUE       
##  2     0     2    NA     2 FALSE       FALSE      
##  3     0     3    NA    12 FALSE       FALSE      
##  4     0     4    NA    25 FALSE       FALSE      
##  5     0     5    NA    14 FALSE       FALSE      
##  6     0     6    NA    10 FALSE       FALSE      
##  7     0     7    NA     6 FALSE       FALSE      
##  8     0     8    NA    16 FALSE       FALSE      
##  9     0     9    NA     7 FALSE       FALSE      
## 10     0    10    NA     3 FALSE       FALSE      
## # ℹ 15 more rows
…
      col_idx = index - 2^depth + 1, # 深さごとの頂点番号
      coord_x = (col_idx * 2 - 1) * 1/(2^depth * 2), # 横方向の頂点位置
    ), 
  # 未挿入要素の座標
  trace_df |> 
    dplyr::filter(!insert_flag) |> # 未挿入要素を抽出
    dplyr::mutate(
      depth = max_y, # 縦方向の頂点位置
      coord_x = id / (N + 1) # 横方向の頂点位置
    )
) |> 
  dplyr::arrange(step, index)
trace_vertex_df

## # A tibble: 1,675 × 9
##     step    id index value target_flag insert_flag depth col_idx coord_x
##    <dbl> <int> <dbl> <int> <lgl>       <lgl>       <dbl>   <dbl>   <dbl>
##  1     0     1     1    15 FALSE       TRUE            0       1  0.5   
##  2     0     2    NA     2 FALSE       FALSE           5      NA  0.0769
##  3     0     3    NA    12 FALSE       FALSE           5      NA  0.115 
##  4     0     4    NA    25 FALSE       FALSE           5      NA  0.154 
##  5     0     5    NA    14 FALSE       FALSE           5      NA  0.192 
##  6     0     6    NA    10 FALSE       FALSE           5      NA  0.231 
##  7     0     7    NA     6 FALSE       FALSE           5      NA  0.269 
##  8     0     8    NA    16 FALSE       FALSE           5      NA  0.308 
##  9     0     9    NA     7 FALSE       FALSE           5      NA  0.346 
## 10     0    10    NA     3 FALSE       FALSE           5      NA  0.385 
## # ℹ 1,665 more rows
…
      edge_label = paste0("step: ", step, ", edge: ", edge_id), # フレームごとに描画用
      depth   = depth - 1, # 縦方向の頂点位置
      index   = index %/% 2, # 親インデックス
      col_idx = index - 2^depth + 1, # 深さごとの頂点番号
      coord_x = (col_idx * 2 - 1) * 1/(2^depth * 2) # 横方向の頂点位置
    ), 
  tibble::tibble(
    step = 0
  ) # (フレーム順の謎バグ回避用)
) |> 
  dplyr::arrange(step, edge_id, index)
trace_edge_df |> 
  dplyr::select(!c(col_idx, coord_x)) # (資料作成用に間引き)

## # A tibble: 1,717 × 9
##     step    id index value target_flag insert_flag depth edge_id edge_label     
##    <dbl> <int> <dbl> <int> <lgl>       <lgl>       <dbl>   <dbl> <chr>          
##  1   0      NA    NA    NA NA          NA             NA      NA <NA>           
##  2   0.5     2     1     2 TRUE        TRUE            0       2 step: 0.5, edg…
##  3   0.5     2     2     2 TRUE        TRUE            1       2 step: 0.5, edg…
##  4   1       2     1     2 TRUE        TRUE            0       2 step: 1, edge:…
##  5   1       2     2     2 TRUE        TRUE            1       2 step: 1, edge:…
##  6   1.5     2     1     2 FALSE       TRUE            0       2 step: 1.5, edg…
##  7   1.5     2     2     2 FALSE       TRUE            1       2 step: 1.5, edg…
##  8   1.5     3     1    12 TRUE        TRUE            0       3 step: 1.5, edg…
##  9   1.5     3     3    12 TRUE        TRUE            1       3 step: 1.5, edg…
## 10   2       2     1     2 FALSE       TRUE            0       2 step: 2, edge:…
## # ℹ 1,707 more rows
…
　インデックスラベルの描画用のデータフレームを作成します。

# インデックスラベルの座標を作成
d <- 0.6
index_df <- trace_vertex_df |> 
  dplyr::filter(insert_flag, step == max(step)) |> # 挿入済み要素・1試行分のデータを抽出
  dplyr::mutate(
    offset = dplyr::if_else(
      condition = index%%2 == 0, true = 0.5+d, false = 0.5-d
    ) # ラベル位置を左右にズラす
  ) |> 
  dplyr::select(!step) # フレーム遷移の影響から外す
index_df

## # A tibble: 25 × 9
##       id index value target_flag insert_flag depth col_idx coord_x offset
##    <int> <dbl> <int> <lgl>       <lgl>       <dbl>   <dbl>   <dbl>  <dbl>
##  1     4     1    25 FALSE       TRUE            0       1  0.5      -0.1
##  2    11     2    24 FALSE       TRUE            1       1  0.25      1.1
##  3    12     3    23 TRUE        TRUE            1       2  0.75     -0.1
##  4    18     4    22 FALSE       TRUE            2       1  0.125     1.1
##  5    21     5    20 FALSE       TRUE            2       2  0.375    -0.1
##  6    25     6    18 TRUE        TRUE            2       3  0.625     1.1
##  7    14     7    21 FALSE       TRUE            2       4  0.875    -0.1
##  8    16     8    13 FALSE       TRUE            3       1  0.0625    1.1
##  9    19     9    19 FALSE       TRUE            3       2  0.188    -0.1
## 10     8    10    16 FALSE       TRUE            3       3  0.312     1.1
## # ℹ 15 more rows
…
# 試行番号を取得
step_vec <- unique(trace_df[["step"]])

# 入替対象の頂点の座標を作成
target_vertex_df <- trace_vertex_df |> 
  dplyr::filter(target_flag) |> # 挿入・入替対象を抽出
  dplyr::mutate(
    frame_id = dplyr::dense_rank(step), # 試行回数の抽出用
    step     = step_vec[frame_id] # 表示フレームを調整
  ) |> 
  dplyr::arrange(step, index)
target_vertex_df |> 
  dplyr::select(!c(col_idx, coord_x)) # (資料作成用に間引き)

## # A tibble: 108 × 8
##     step    id index value target_flag insert_flag depth frame_id
##    <dbl> <int> <dbl> <int> <lgl>       <lgl>       <dbl>    <int>
##  1   0       2     2     2 TRUE        TRUE            1        1
##  2   0.5     1     1    15 TRUE        TRUE            0        2
##  3   0.5     2     2     2 TRUE        TRUE            1        2
##  4   1       3     3    12 TRUE        TRUE            1        3
##  5   1.5     1     1    15 TRUE        TRUE            0        4
##  6   1.5     3     3    12 TRUE        TRUE            1        4
##  7   2       4     4    25 TRUE        TRUE            2        5
##  8   2.5     4     2    25 TRUE        TRUE            1        6
##  9   2.5     2     4     2 TRUE        TRUE            2        6
## 10   3       4     1    25 TRUE        TRUE            0        7
## # ℹ 98 more rows
…
  ) |> 
  dplyr::filter(step%%1 == 0) |> # 入替対象を抽出(挿入対象を除去)
  dplyr::group_by(step) |> # 辺IDの作成用
  dplyr::mutate(
    edge_label = paste0("step: ", step, ", id: ", min(index)) # 線分間の干渉回避用
  ) |> 
  dplyr::ungroup() |> 
  dplyr::mutate(
    step = step_vec[frame_id] # 表示フレームを調整
  ) |> 
  dplyr::arrange(step, index)
target_edge_df |> 
  dplyr::select(!c(col_idx, coord_x)) # (資料作成用に間引き)

## # A tibble: 84 × 9
##     step    id index value target_flag insert_flag depth frame_id edge_label    
##    <dbl> <int> <dbl> <int> <lgl>       <lgl>       <dbl>    <int> <chr>         
##  1   0.5     1     1    15 TRUE        TRUE            0        2 step: 1, id: 1
##  2   0.5     2     2     2 TRUE        TRUE            1        2 step: 1, id: 1
##  3   1.5     1     1    15 TRUE        TRUE            0        4 step: 2, id: 1
##  4   1.5     3     3    12 TRUE        TRUE            1        4 step: 2, id: 1
##  5   2.5     4     2    25 TRUE        TRUE            1        6 step: 3, id: 2
##  6   2.5     2     4     2 TRUE        TRUE            2        6 step: 3, id: 2
##  7   3       4     1    25 TRUE        TRUE            0        7 step: 4, id: 1
##  8   3       1     2    15 TRUE        TRUE            1        7 step: 4, id: 1
##  9   4.5     1     2    15 TRUE        TRUE            1        9 step: 5, id: 2
## 10   4.5     5     5    14 TRUE        TRUE            2        9 step: 5, id: 2
## # ℹ 74 more rows
…
    heap_flag   = TRUE
  ), 
  # 削除後
  tibble::tibble(
    step  = 1, 
    id    = c(initial_N, 2:N, 1), 
    index = 1:initial_N, 
    value = c(a, NA), 
    target_flag = index %in% c(1, initial_N), # 挿入・削除対象
    heap_flag   = c(rep(TRUE, times = N), FALSE) # ヒープ要素
  )
)
trace_df

## # A tibble: 40 × 6
##     step    id index value target_flag heap_flag
##    <dbl> <dbl> <int> <int> <lgl>       <lgl>    
##  1     0     1     1    20 FALSE       TRUE     
##  2     0     2     2    19 FALSE       TRUE     
##  3     0     3     3    18 FALSE       TRUE     
##  4     0     4     4    16 FALSE       TRUE     
##  5     0     5     5    17 FALSE       TRUE     
##  6     0     6     6    12 FALSE       TRUE     
##  7     0     7     7    14 FALSE       TRUE     
##  8     0     8     8    15 FALSE       TRUE     
##  9     0     9     9    11 FALSE       TRUE     
## 10     0    10    10     7 FALSE       TRUE     
## # ℹ 30 more rows
…
